%TF.GenerationSoftware,KiCad,Pcbnew,7.0.7*%
%TF.CreationDate,2023-11-20T17:39:21+01:00*%
%TF.ProjectId,nrf52dk,6e726635-3264-46b2-9e6b-696361645f70,rev?*%
%TF.SameCoordinates,Original*%
%TF.FileFunction,Profile,NP*%
%FSLAX46Y46*%
G04 Gerber Fmt 4.6, Leading zero omitted, Abs format (unit mm)*
G04 Created by KiCad (PCBNEW 7.0.7) date 2023-11-20 17:39:21*
%MOMM*%
%LPD*%
G01*
G04 APERTURE LIST*
%TA.AperFunction,Profile*%
%ADD10C,0.050000*%
%TD*%
G04 APERTURE END LIST*
D10*
X138501100Y-112003600D02*
X158501100Y-112003600D01*
X158501100Y-112003600D02*
X158501100Y-98003600D01*
X138501100Y-98003600D02*
X138501100Y-112003600D01*
X158501100Y-98003600D02*
X138501100Y-98003600D01*
M02*
