%TF.GenerationSoftware,KiCad,Pcbnew,7.0.7*%
%TF.CreationDate,2023-11-20T17:39:21+01:00*%
%TF.ProjectId,nrf52dk,6e726635-3264-46b2-9e6b-696361645f70,rev?*%
%TF.SameCoordinates,Original*%
%TF.FileFunction,Copper,L1,Top*%
%TF.FilePolarity,Positive*%
%FSLAX46Y46*%
G04 Gerber Fmt 4.6, Leading zero omitted, Abs format (unit mm)*
G04 Created by KiCad (PCBNEW 7.0.7) date 2023-11-20 17:39:21*
%MOMM*%
%LPD*%
G01*
G04 APERTURE LIST*
G04 Aperture macros list*
%AMRoundRect*
0 Rectangle with rounded corners*
0 $1 Rounding radius*
0 $2 $3 $4 $5 $6 $7 $8 $9 X,Y pos of 4 corners*
0 Add a 4 corners polygon primitive as box body*
4,1,4,$2,$3,$4,$5,$6,$7,$8,$9,$2,$3,0*
0 Add four circle primitives for the rounded corners*
1,1,$1+$1,$2,$3*
1,1,$1+$1,$4,$5*
1,1,$1+$1,$6,$7*
1,1,$1+$1,$8,$9*
0 Add four rect primitives between the rounded corners*
20,1,$1+$1,$2,$3,$4,$5,0*
20,1,$1+$1,$4,$5,$6,$7,0*
20,1,$1+$1,$6,$7,$8,$9,0*
20,1,$1+$1,$8,$9,$2,$3,0*%
G04 Aperture macros list end*
%TA.AperFunction,SMDPad,CuDef*%
%ADD10R,4.450000X4.450000*%
%TD*%
%TA.AperFunction,SMDPad,CuDef*%
%ADD11RoundRect,0.050000X-0.050000X-0.362500X0.050000X-0.362500X0.050000X0.362500X-0.050000X0.362500X0*%
%TD*%
%TA.AperFunction,SMDPad,CuDef*%
%ADD12RoundRect,0.050000X-0.362500X-0.050000X0.362500X-0.050000X0.362500X0.050000X-0.362500X0.050000X0*%
%TD*%
%TA.AperFunction,SMDPad,CuDef*%
%ADD13RoundRect,0.250000X0.450000X-0.262500X0.450000X0.262500X-0.450000X0.262500X-0.450000X-0.262500X0*%
%TD*%
%TA.AperFunction,SMDPad,CuDef*%
%ADD14RoundRect,0.243750X-0.456250X0.243750X-0.456250X-0.243750X0.456250X-0.243750X0.456250X0.243750X0*%
%TD*%
%TA.AperFunction,SMDPad,CuDef*%
%ADD15R,0.600000X0.600000*%
%TD*%
%TA.AperFunction,SMDPad,CuDef*%
%ADD16R,1.050000X0.900000*%
%TD*%
%TA.AperFunction,SMDPad,CuDef*%
%ADD17R,1.800000X1.000000*%
%TD*%
%TA.AperFunction,SMDPad,CuDef*%
%ADD18R,0.900000X1.050000*%
%TD*%
%TA.AperFunction,SMDPad,CuDef*%
%ADD19R,0.950000X0.850000*%
%TD*%
%TA.AperFunction,ViaPad*%
%ADD20C,0.800000*%
%TD*%
%TA.AperFunction,Conductor*%
%ADD21C,0.200000*%
%TD*%
%TA.AperFunction,Conductor*%
%ADD22C,0.208000*%
%TD*%
%TA.AperFunction,Conductor*%
%ADD23C,0.600000*%
%TD*%
%TA.AperFunction,Conductor*%
%ADD24C,0.150000*%
%TD*%
%TA.AperFunction,Conductor*%
%ADD25C,0.400000*%
%TD*%
G04 APERTURE END LIST*
D10*
%TO.P,U1,49*%
%TO.N,N/C*%
X149462500Y-106050000D03*
D11*
%TO.P,U1,48,VDD@48*%
%TO.N,VCC*%
X147262500Y-103112500D03*
%TO.P,U1,47,DCC@47*%
%TO.N,Net-(U1-DCC@47)*%
X147662500Y-103112500D03*
%TO.P,U1,46,DEC4@46*%
%TO.N,/DEC4*%
X148062500Y-103112500D03*
%TO.P,U1,45,VSS@45*%
%TO.N,GND*%
X148462500Y-103112500D03*
%TO.P,U1,44,N.C.@44*%
%TO.N,unconnected-(U1-N.C.@44-Pad44)*%
X148862500Y-103112500D03*
%TO.P,U1,43,P0.31@43*%
%TO.N,/P0.31*%
X149262500Y-103112500D03*
%TO.P,U1,42,P0.30@42*%
%TO.N,/P0.30*%
X149662500Y-103112500D03*
%TO.P,U1,41,P0.29@41*%
%TO.N,/P0.29*%
X150062500Y-103112500D03*
%TO.P,U1,40,P0.28@40*%
%TO.N,/P0.28*%
X150462500Y-103112500D03*
%TO.P,U1,39,P0.27@39*%
%TO.N,/P0.27*%
X150862500Y-103112500D03*
%TO.P,U1,38,P0.26@38*%
%TO.N,/P0.26*%
X151262500Y-103112500D03*
%TO.P,U1,37,P0.25@37*%
%TO.N,/P0.25*%
X151662500Y-103112500D03*
D12*
%TO.P,U1,36,VDD@36*%
%TO.N,VCC*%
X152400000Y-103850000D03*
%TO.P,U1,35,XC2@35*%
%TO.N,Net-(U1-XC2@35)*%
X152400000Y-104250000D03*
%TO.P,U1,34,XC1@34*%
%TO.N,Net-(U1-XC1@34)*%
X152400000Y-104650000D03*
%TO.P,U1,33,DEC3@33*%
%TO.N,/DEC3*%
X152400000Y-105050000D03*
%TO.P,U1,32,DEC2@32*%
%TO.N,/DEC2*%
X152400000Y-105450000D03*
%TO.P,U1,31,VSS@31*%
%TO.N,GND*%
X152400000Y-105850000D03*
%TO.P,U1,30,ANT@30*%
%TO.N,Net-(U1-ANT@30)*%
X152400000Y-106250000D03*
%TO.P,U1,29,P0.24@29*%
%TO.N,/P0.24*%
X152400000Y-106650000D03*
%TO.P,U1,28,P0.23@28*%
%TO.N,/P0.23*%
X152400000Y-107050000D03*
%TO.P,U1,27,P0.22@27*%
%TO.N,/P0.22*%
X152400000Y-107450000D03*
%TO.P,U1,26,SWDIO@26*%
%TO.N,/SWDIO*%
X152400000Y-107850000D03*
%TO.P,U1,25,SWDCLK@25*%
%TO.N,/SWDCLK*%
X152400000Y-108250000D03*
D11*
%TO.P,U1,24,P0.21/RESET@24*%
%TO.N,/P0.21{slash}RESET*%
X151662500Y-108987500D03*
%TO.P,U1,23,P0.20@23*%
%TO.N,/P0.20*%
X151262500Y-108987500D03*
%TO.P,U1,22,P0.19@22*%
%TO.N,/P0.19*%
X150862500Y-108987500D03*
%TO.P,U1,21,P0.18/SWO@21*%
%TO.N,/P0.18{slash}SWO*%
X150462500Y-108987500D03*
%TO.P,U1,20,P0.17@20*%
%TO.N,/P0.17*%
X150062500Y-108987500D03*
%TO.P,U1,19,P0.16@19*%
%TO.N,/P0.16*%
X149662500Y-108987500D03*
%TO.P,U1,18,P0.15@18*%
%TO.N,/P0.15*%
X149262500Y-108987500D03*
%TO.P,U1,17,P0.14@17*%
%TO.N,/P0.14*%
X148862500Y-108987500D03*
%TO.P,U1,16,P0.13@16*%
%TO.N,/P0.13*%
X148462500Y-108987500D03*
%TO.P,U1,15,P0.12@15*%
%TO.N,/P0.12*%
X148062500Y-108987500D03*
%TO.P,U1,14,P0.11@14*%
%TO.N,/P0.11*%
X147662500Y-108987500D03*
%TO.P,U1,13,VDD@13*%
%TO.N,VCC*%
X147262500Y-108987500D03*
D12*
%TO.P,U1,12,P0.10/NFC2@12*%
%TO.N,/P0.10*%
X146525000Y-108250000D03*
%TO.P,U1,11,P0.09/NFC1@11*%
%TO.N,/P0.09*%
X146525000Y-107850000D03*
%TO.P,U1,10,P0.08@10*%
%TO.N,/P0.08*%
X146525000Y-107450000D03*
%TO.P,U1,9,P0.07@09*%
%TO.N,/P0.07*%
X146525000Y-107050000D03*
%TO.P,U1,8,P0.06@08*%
%TO.N,/P0.06*%
X146525000Y-106650000D03*
%TO.P,U1,7,P0.05/AIN3@07*%
%TO.N,/P0.05*%
X146525000Y-106250000D03*
%TO.P,U1,6,P0.04/AIN2@06*%
%TO.N,/P0.04*%
X146525000Y-105850000D03*
%TO.P,U1,5,P0.03/AIN1@05*%
%TO.N,/P0.03*%
X146525000Y-105450000D03*
%TO.P,U1,4,P0.02/AIN0@04*%
%TO.N,/P0.02*%
X146525000Y-105050000D03*
%TO.P,U1,3,P0.01/XL2@03*%
%TO.N,/P0.01{slash}XL2*%
X146525000Y-104650000D03*
%TO.P,U1,2,P0.00/XL1@02*%
%TO.N,/P0.00{slash}XL1*%
X146525000Y-104250000D03*
%TO.P,U1,1,DEC1@01*%
%TO.N,/DEC1*%
X146525000Y-103850000D03*
%TD*%
D13*
%TO.P,R1,1*%
%TO.N,Net-(D1-A)*%
X143275000Y-110912500D03*
%TO.P,R1,2*%
%TO.N,/P0.10*%
X143275000Y-109087500D03*
%TD*%
D14*
%TO.P,D1,1,K*%
%TO.N,GND*%
X141225000Y-109062500D03*
%TO.P,D1,2,A*%
%TO.N,Net-(D1-A)*%
X141225000Y-110937500D03*
%TD*%
D15*
%TO.P,C12,1*%
%TO.N,GND*%
X139201100Y-102553600D03*
%TO.P,C12,2*%
%TO.N,P0.01/XL2*%
X139201100Y-103653600D03*
%TD*%
D16*
%TO.P,L2,1*%
%TO.N,N$4*%
X145701100Y-100103600D03*
%TO.P,L2,2*%
%TO.N,N$2*%
X144101100Y-100103600D03*
%TD*%
D17*
%TO.P,X2,1*%
%TO.N,P0.00/XL1*%
X140901100Y-101153600D03*
%TO.P,X2,2*%
%TO.N,P0.01/XL2*%
X140901100Y-103653600D03*
%TD*%
D15*
%TO.P,C5,1*%
%TO.N,VDD_P3V3*%
X147101100Y-110103600D03*
%TO.P,C5,2*%
%TO.N,GND*%
X146001100Y-110103600D03*
%TD*%
%TO.P,C1,1*%
%TO.N,X1*%
X157301100Y-100253600D03*
%TO.P,C1,2*%
%TO.N,GND*%
X157301100Y-101353600D03*
%TD*%
D16*
%TO.P,C9,1*%
%TO.N,VDD_P3V3*%
X145701100Y-102303600D03*
%TO.P,C9,2*%
%TO.N,GND*%
X144101100Y-102303600D03*
%TD*%
D15*
%TO.P,L3,1*%
%TO.N,N$2*%
X144351100Y-98803600D03*
%TO.P,L3,2*%
%TO.N,DEC4*%
X145451100Y-98803600D03*
%TD*%
%TO.P,C11,1*%
%TO.N,GND*%
X139201100Y-100053600D03*
%TO.P,C11,2*%
%TO.N,P0.00/XL1*%
X139201100Y-101153600D03*
%TD*%
%TO.P,C4,1*%
%TO.N,DEC1*%
X145451100Y-103603600D03*
%TO.P,C4,2*%
%TO.N,GND*%
X144351100Y-103603600D03*
%TD*%
D18*
%TO.P,C10,1*%
%TO.N,DEC4*%
X147701100Y-101503600D03*
%TO.P,C10,2*%
%TO.N,GND*%
X147701100Y-99903600D03*
%TD*%
D15*
%TO.P,C7,1*%
%TO.N,DEC3*%
X154751100Y-102703600D03*
%TO.P,C7,2*%
%TO.N,GND*%
X155851100Y-102703600D03*
%TD*%
%TO.P,C6,1*%
%TO.N,DEC2*%
X154751100Y-103703600D03*
%TO.P,C6,2*%
%TO.N,GND*%
X155851100Y-103703600D03*
%TD*%
%TO.P,L1,1*%
%TO.N,ANT*%
X155751100Y-106553600D03*
%TO.P,L1,2*%
%TO.N,RF*%
X156851100Y-106553600D03*
%TD*%
%TO.P,C8,1*%
%TO.N,VDD_P3V3*%
X152301100Y-101353600D03*
%TO.P,C8,2*%
%TO.N,GND*%
X152301100Y-100253600D03*
%TD*%
%TO.P,C3,1*%
%TO.N,ANT*%
X154701100Y-106553600D03*
%TO.P,C3,2*%
%TO.N,GND*%
X154701100Y-105453600D03*
%TD*%
D19*
%TO.P,X1,1*%
%TO.N,X1*%
X156026100Y-100228600D03*
%TO.P,X1,2*%
%TO.N,GND*%
X154576100Y-100228600D03*
%TO.P,X1,3*%
%TO.N,N$3*%
X154576100Y-101378600D03*
%TO.P,X1,4*%
%TO.N,GND*%
X156026100Y-101378600D03*
%TD*%
D15*
%TO.P,C2,1*%
%TO.N,N$3*%
X153301100Y-101353600D03*
%TO.P,C2,2*%
%TO.N,GND*%
X153301100Y-100253600D03*
%TD*%
D20*
%TO.N,GND*%
X157601100Y-102303600D03*
X157101100Y-105603600D03*
X155201100Y-111103600D03*
X156801100Y-102703600D03*
X145801100Y-111103600D03*
X143401100Y-103503600D03*
%TO.N,/P0.10*%
X144901100Y-110103600D03*
%TO.N,GND*%
X140101100Y-102403600D03*
X143301100Y-98903600D03*
X157101100Y-107603600D03*
X156801100Y-103703600D03*
X153501100Y-99303600D03*
X139401100Y-111103600D03*
X154601100Y-99103600D03*
X157601100Y-98903600D03*
X142901100Y-102303600D03*
X139401100Y-98903600D03*
X157601100Y-111103600D03*
X139401100Y-109103600D03*
X152401100Y-99303600D03*
X140101100Y-100003600D03*
X146001100Y-109103600D03*
X155201100Y-108303600D03*
%TO.N,VDD_P3V3*%
X152501100Y-102303600D03*
X145701100Y-101203600D03*
X146901100Y-111103600D03*
%TD*%
D21*
%TO.N,/P0.10*%
X144112500Y-108250000D02*
X143275000Y-109087500D01*
X146525000Y-108250000D02*
X144112500Y-108250000D01*
D22*
%TO.N,Net-(D1-A)*%
X141225000Y-110937500D02*
X143250000Y-110937500D01*
X143250000Y-110937500D02*
X143275000Y-110912500D01*
D21*
%TO.N,GND*%
X150101100Y-104203600D02*
X151301100Y-104203600D01*
X149201100Y-105923215D02*
X149345809Y-105983155D01*
X151276784Y-105727209D02*
X151241186Y-105618955D01*
X147701100Y-107803600D02*
X147701100Y-106603600D01*
X149076836Y-105827864D02*
X149201100Y-105923215D01*
X151301100Y-106603600D02*
X151301100Y-107803600D01*
X151399410Y-106310731D02*
X151406872Y-106418955D01*
X151351100Y-105813600D02*
X151351100Y-106213600D01*
X144351100Y-102553600D02*
X144101100Y-102303600D01*
X148901100Y-105403600D02*
X148921545Y-105558891D01*
X157301100Y-101353600D02*
X156051100Y-101353600D01*
X153301100Y-100253600D02*
X154551100Y-100253600D01*
X149345809Y-105983155D02*
X149501100Y-106003600D01*
X156051100Y-101353600D02*
X156026100Y-101378600D01*
X148501100Y-103003600D02*
X148501100Y-104203600D01*
X151351100Y-105813600D02*
X151351100Y-105813600D01*
X151301100Y-107803600D02*
X150101100Y-107803600D01*
X148901100Y-105403600D02*
X150101100Y-105403600D01*
X151351100Y-106213600D02*
X151399410Y-106310731D01*
X148901100Y-105403600D02*
X148901100Y-105403600D01*
X148921545Y-105558891D02*
X148981485Y-105703600D01*
X152501100Y-105803600D02*
X154351100Y-105803600D01*
X151406872Y-106418955D02*
X151301100Y-106603600D01*
X148501100Y-104203600D02*
X148901100Y-104203600D01*
X147701100Y-104203600D02*
X148501100Y-104203600D01*
X151241186Y-105618955D02*
X151301100Y-105403600D01*
X148901100Y-106603600D02*
X150101100Y-106603600D01*
X147701100Y-107803600D02*
X148901100Y-107803600D01*
X147701100Y-106603600D02*
X148901100Y-106603600D01*
X148551100Y-104013600D02*
X148551100Y-104013600D01*
X147701100Y-105403600D02*
X148901100Y-105403600D01*
X152501100Y-105803600D02*
X151351100Y-105813600D01*
X151351100Y-106213600D02*
X151351100Y-106213600D01*
X150101100Y-106603600D02*
X151301100Y-106603600D01*
X151351100Y-105813600D02*
X151276784Y-105727209D01*
X148551100Y-104013600D02*
X148602267Y-104110835D01*
X154351100Y-105803600D02*
X154701100Y-105453600D01*
X150101100Y-105403600D02*
X151301100Y-105403600D01*
X148686750Y-104181087D02*
X148901100Y-104203600D01*
X148981485Y-105703600D02*
X149076836Y-105827864D01*
X148602267Y-104110835D02*
X148686750Y-104181087D01*
X148901100Y-104203600D02*
X150101100Y-104203600D01*
X151301100Y-104203600D02*
X151301100Y-105403600D01*
X154551100Y-100253600D02*
X154576100Y-100228600D01*
%TO.N,DEC1*%
X146501100Y-103803600D02*
X145651100Y-103803600D01*
X145651100Y-103803600D02*
X145451100Y-103603600D01*
%TO.N,DEC4*%
X146951100Y-100753600D02*
X147701100Y-101503600D01*
X148101100Y-102003600D02*
X147701100Y-101503600D01*
X146001100Y-98803600D02*
X146951100Y-99753600D01*
X146951100Y-99753600D02*
X146951100Y-100553600D01*
X146951100Y-100553600D02*
X146951100Y-100753600D01*
X145451100Y-98803600D02*
X146001100Y-98803600D01*
X148101100Y-103003600D02*
X148101100Y-102003600D01*
%TO.N,DEC3*%
X153301100Y-105003600D02*
X153701100Y-104603600D01*
X154001100Y-103403600D02*
X154651100Y-102753600D01*
X154001100Y-104303600D02*
X154001100Y-103403600D01*
X152501100Y-105003600D02*
X153301100Y-105003600D01*
X154651100Y-102753600D02*
X154751100Y-102703600D01*
X153701100Y-104603600D02*
X154001100Y-104303600D01*
%TO.N,DEC2*%
X152501100Y-105403600D02*
X153501100Y-105403600D01*
X154401100Y-104503600D02*
X154401100Y-104303600D01*
X154101100Y-104803600D02*
X154401100Y-104503600D01*
X153501100Y-105403600D02*
X154101100Y-104803600D01*
X154401100Y-104053600D02*
X154751100Y-103703600D01*
X154401100Y-104303600D02*
X154401100Y-104053600D01*
%TO.N,ANT*%
X154751100Y-106553600D02*
X154701100Y-106553600D01*
X152501100Y-106203600D02*
X154351100Y-106203600D01*
D23*
X155751100Y-106553600D02*
X154751100Y-106553600D01*
D21*
X154351100Y-106203600D02*
X154701100Y-106553600D01*
%TO.N,N$3*%
X152901100Y-104203600D02*
X153201100Y-103903600D01*
X153301100Y-101353600D02*
X154501100Y-101353600D01*
X153201100Y-103103600D02*
X153201100Y-102653600D01*
X153201100Y-103903600D02*
X153201100Y-103103600D01*
X154501100Y-101353600D02*
X154551100Y-101353600D01*
X154551100Y-101353600D02*
X154576100Y-101378600D01*
X153201100Y-102653600D02*
X154501100Y-101353600D01*
X152501100Y-104203600D02*
X152901100Y-104203600D01*
%TO.N,X1*%
X156051100Y-100253600D02*
X156026100Y-100228600D01*
X153601100Y-102803600D02*
X154301100Y-102103600D01*
X153601100Y-103303600D02*
X153601100Y-102803600D01*
D24*
X155926100Y-100228600D02*
X156026100Y-100228600D01*
D21*
X155201100Y-102103600D02*
X155301100Y-102003600D01*
X153501100Y-104203600D02*
X153601100Y-104103600D01*
D24*
X155301100Y-102003600D02*
X155301100Y-100853600D01*
D21*
X153601100Y-104103600D02*
X153601100Y-103303600D01*
X157301100Y-100253600D02*
X156051100Y-100253600D01*
X152501100Y-104603600D02*
X153101100Y-104603600D01*
X153101100Y-104603600D02*
X153501100Y-104203600D01*
X154301100Y-102103600D02*
X155201100Y-102103600D01*
D24*
X155301100Y-100853600D02*
X155926100Y-100228600D01*
D21*
%TO.N,/P0.31*%
X149301100Y-103003600D02*
X149301100Y-98503600D01*
%TO.N,/P0.30*%
X149701100Y-103003600D02*
X149701100Y-98503600D01*
%TO.N,/P0.29*%
X150101100Y-103003600D02*
X150101100Y-98503600D01*
%TO.N,/P0.28*%
X150501100Y-103003600D02*
X150501100Y-98503600D01*
%TO.N,/P0.27*%
X150901100Y-103003600D02*
X150901100Y-98503600D01*
%TO.N,/P0.26*%
X151301100Y-103003600D02*
X151301100Y-98503600D01*
%TO.N,/P0.25*%
X151701100Y-103003600D02*
X151701100Y-98503600D01*
%TO.N,/P0.24*%
X154401100Y-107503600D02*
X154401100Y-111503600D01*
X152501100Y-106603600D02*
X153501100Y-106603600D01*
X154301100Y-107403600D02*
X154401100Y-107503600D01*
X154201100Y-107303600D02*
X154301100Y-107403600D01*
X153501100Y-106603600D02*
X154201100Y-107303600D01*
%TO.N,/P0.23*%
X153401100Y-107103600D02*
X153301100Y-107003600D01*
X154001100Y-107703600D02*
X154001100Y-111503600D01*
X153401100Y-107103600D02*
X154001100Y-107703600D01*
X153301100Y-107003600D02*
X152501100Y-107003600D01*
%TO.N,/P0.22*%
X153101100Y-107403600D02*
X153601100Y-107903600D01*
X152501100Y-107403600D02*
X153101100Y-107403600D01*
X153601100Y-107903600D02*
X153601100Y-111503600D01*
%TO.N,/P0.02*%
X146501100Y-105003600D02*
X139001100Y-105003600D01*
%TO.N,/P0.03*%
X146501100Y-105403600D02*
X139001100Y-105403600D01*
%TO.N,/P0.04*%
X146501100Y-105803600D02*
X139001100Y-105803600D01*
%TO.N,/P0.05*%
X146501100Y-106203600D02*
X139001100Y-106203600D01*
%TO.N,/P0.06*%
X146501100Y-106603600D02*
X139001100Y-106603600D01*
%TO.N,/P0.07*%
X146501100Y-107003600D02*
X139001100Y-107003600D01*
%TO.N,/P0.08*%
X146501100Y-107403600D02*
X139001100Y-107403600D01*
%TO.N,/P0.11*%
X147701100Y-109003600D02*
X147701100Y-111503600D01*
%TO.N,/P0.12*%
X148101100Y-109003600D02*
X148101100Y-111503600D01*
%TO.N,/P0.13*%
X148501100Y-109003600D02*
X148501100Y-111503600D01*
%TO.N,/P0.14*%
X148901100Y-109003600D02*
X148901100Y-111503600D01*
%TO.N,/P0.15*%
X149301100Y-109003600D02*
X149301100Y-111503600D01*
%TO.N,/P0.16*%
X149701100Y-109003600D02*
X149701100Y-111503600D01*
%TO.N,/P0.17*%
X150101100Y-109003600D02*
X150101100Y-111503600D01*
%TO.N,/P0.18{slash}SWO*%
X150501100Y-109003600D02*
X150501100Y-111503600D01*
%TO.N,/P0.19*%
X150901100Y-109003600D02*
X150901100Y-111503600D01*
%TO.N,/P0.20*%
X151301100Y-109003600D02*
X151301100Y-111503600D01*
%TO.N,/P0.21{slash}RESET*%
X151701100Y-109003600D02*
X151701100Y-111503600D01*
%TO.N,P0.00/XL1*%
X142901100Y-104203600D02*
X142201100Y-103503600D01*
X142201100Y-102453600D02*
X140901100Y-101153600D01*
X140901100Y-101153600D02*
X139201100Y-101153600D01*
X142201100Y-103503600D02*
X142201100Y-102453600D01*
X146501100Y-104203600D02*
X142901100Y-104203600D01*
%TO.N,P0.01/XL2*%
X142201100Y-104603600D02*
X146501100Y-104603600D01*
X140901100Y-103653600D02*
X141151100Y-103903600D01*
X140901100Y-103653600D02*
X139201100Y-103653600D01*
X141151100Y-103903600D02*
X141501100Y-103903600D01*
X141501100Y-103903600D02*
X142201100Y-104603600D01*
%TO.N,/SWDCLK*%
X152701100Y-108203600D02*
X152801100Y-108303600D01*
X152801100Y-108303600D02*
X152801100Y-111503600D01*
X152501100Y-108203600D02*
X152701100Y-108203600D01*
%TO.N,/SWDIO*%
X153201100Y-108103600D02*
X153201100Y-111503600D01*
X152501100Y-107803600D02*
X152901100Y-107803600D01*
X152901100Y-107803600D02*
X153201100Y-108103600D01*
%TO.N,VDD_P3V3*%
X147301100Y-109003600D02*
X147301100Y-110103600D01*
D25*
X145701100Y-101203600D02*
X145701100Y-102303600D01*
D21*
X147301100Y-103003600D02*
X146401100Y-103003600D01*
X147301100Y-110103600D02*
X147101100Y-110103600D01*
X147101100Y-110103600D02*
X146901100Y-110103600D01*
X146901100Y-110103600D02*
X146901100Y-111103600D01*
X146401100Y-103003600D02*
X145701100Y-102303600D01*
X152501100Y-103803600D02*
X152501100Y-103703600D01*
D25*
X152501100Y-101553600D02*
X152501100Y-102303600D01*
X152301100Y-101353600D02*
X152501100Y-101553600D01*
X152501100Y-102303600D02*
X152501100Y-103703600D01*
D23*
%TO.N,RF*%
X156851100Y-106553600D02*
X157801100Y-106553600D01*
D21*
%TO.N,/P0.09*%
X146501100Y-107803600D02*
X139001100Y-107803600D01*
%TO.N,N$2*%
X144351100Y-98803600D02*
X144351100Y-100103600D01*
X144351100Y-100103600D02*
X144101100Y-100103600D01*
%TO.N,N$4*%
X146951100Y-102353600D02*
X146701100Y-102103600D01*
X147401100Y-102353600D02*
X146951100Y-102353600D01*
X147701100Y-103003600D02*
X147701100Y-102603600D01*
X146701100Y-101003600D02*
X145701100Y-100103600D01*
X147701100Y-102603600D02*
X147401100Y-102353600D01*
X146701100Y-102103600D02*
X146701100Y-101003600D01*
%TD*%
%TA.AperFunction,Conductor*%
%TO.N,GND*%
G36*
X154019545Y-105396604D02*
G01*
X154048579Y-105438068D01*
X154051100Y-105457221D01*
X154051100Y-105786816D01*
X154055707Y-105818431D01*
X154045433Y-105867997D01*
X154005702Y-105899362D01*
X153982480Y-105903100D01*
X152473251Y-105903100D01*
X152387598Y-105919112D01*
X152337660Y-105910834D01*
X152304726Y-105872394D01*
X152300000Y-105846372D01*
X152300000Y-105824500D01*
X152317313Y-105776934D01*
X152361150Y-105751624D01*
X152374000Y-105750500D01*
X152787178Y-105750500D01*
X152790449Y-105750178D01*
X152794075Y-105750000D01*
X153159565Y-105750000D01*
X153176613Y-105730040D01*
X153220670Y-105705115D01*
X153232883Y-105704100D01*
X153440013Y-105704100D01*
X153451989Y-105706053D01*
X153452077Y-105705426D01*
X153458865Y-105706373D01*
X153507203Y-105704138D01*
X153508888Y-105704100D01*
X153528942Y-105704100D01*
X153528944Y-105704100D01*
X153533287Y-105703287D01*
X153538366Y-105702697D01*
X153571092Y-105701185D01*
X153582739Y-105696041D01*
X153599027Y-105690998D01*
X153611533Y-105688661D01*
X153639381Y-105671418D01*
X153643894Y-105669038D01*
X153673865Y-105655806D01*
X153682861Y-105646808D01*
X153696238Y-105636214D01*
X153707052Y-105629519D01*
X153713241Y-105621323D01*
X153726787Y-105603383D01*
X153730151Y-105599519D01*
X153823745Y-105505925D01*
X153924776Y-105404893D01*
X153970650Y-105383503D01*
X154019545Y-105396604D01*
G37*
%TD.AperFunction*%
%TA.AperFunction,Conductor*%
G36*
X158474166Y-98021413D02*
G01*
X158499476Y-98065250D01*
X158500600Y-98078100D01*
X158500600Y-111929100D01*
X158483287Y-111976666D01*
X158439450Y-112001976D01*
X158426600Y-112003100D01*
X138575600Y-112003100D01*
X138528034Y-111985787D01*
X138502724Y-111941950D01*
X138501600Y-111929100D01*
X138501600Y-111234764D01*
X140324500Y-111234764D01*
X140325179Y-111242000D01*
X140327314Y-111264775D01*
X140327315Y-111264780D01*
X140371544Y-111391177D01*
X140371545Y-111391179D01*
X140451070Y-111498930D01*
X140558821Y-111578455D01*
X140614154Y-111597816D01*
X140685219Y-111622684D01*
X140685221Y-111622684D01*
X140685226Y-111622686D01*
X140715236Y-111625500D01*
X140715243Y-111625500D01*
X141734757Y-111625500D01*
X141734764Y-111625500D01*
X141764774Y-111622686D01*
X141764889Y-111622646D01*
X141789506Y-111614032D01*
X141891179Y-111578455D01*
X141998930Y-111498930D01*
X142078455Y-111391179D01*
X142099271Y-111331688D01*
X142113314Y-111291559D01*
X142145365Y-111252380D01*
X142183161Y-111242000D01*
X142318655Y-111242000D01*
X142366221Y-111259313D01*
X142388502Y-111291560D01*
X142422205Y-111387880D01*
X142422207Y-111387883D01*
X142502846Y-111497146D01*
X142502853Y-111497153D01*
X142612116Y-111577792D01*
X142612118Y-111577793D01*
X142740295Y-111622644D01*
X142740301Y-111622646D01*
X142770734Y-111625500D01*
X142770741Y-111625500D01*
X143779258Y-111625500D01*
X143779266Y-111625500D01*
X143809699Y-111622646D01*
X143937882Y-111577793D01*
X144047150Y-111497150D01*
X144127793Y-111387882D01*
X144172646Y-111259699D01*
X144175500Y-111229266D01*
X144175500Y-110595734D01*
X144172646Y-110565301D01*
X144127793Y-110437118D01*
X144127792Y-110437116D01*
X144047153Y-110327853D01*
X144047146Y-110327846D01*
X143937883Y-110247207D01*
X143937881Y-110247206D01*
X143809704Y-110202355D01*
X143809705Y-110202355D01*
X143809700Y-110202354D01*
X143809699Y-110202354D01*
X143779266Y-110199500D01*
X142770734Y-110199500D01*
X142740301Y-110202354D01*
X142740299Y-110202354D01*
X142740295Y-110202355D01*
X142612118Y-110247206D01*
X142612116Y-110247207D01*
X142502853Y-110327846D01*
X142502846Y-110327853D01*
X142422207Y-110437116D01*
X142422206Y-110437118D01*
X142377355Y-110565295D01*
X142377354Y-110565296D01*
X142377298Y-110565903D01*
X142377157Y-110566198D01*
X142376395Y-110569693D01*
X142375585Y-110569516D01*
X142355624Y-110611647D01*
X142309617Y-110632757D01*
X142303621Y-110633000D01*
X142183161Y-110633000D01*
X142135595Y-110615687D01*
X142113314Y-110583441D01*
X142078455Y-110483822D01*
X142078455Y-110483821D01*
X141998930Y-110376070D01*
X141891179Y-110296545D01*
X141891177Y-110296544D01*
X141764780Y-110252315D01*
X141764775Y-110252314D01*
X141760486Y-110251912D01*
X141734764Y-110249500D01*
X140715236Y-110249500D01*
X140693800Y-110251510D01*
X140685224Y-110252314D01*
X140685219Y-110252315D01*
X140558822Y-110296544D01*
X140451070Y-110376069D01*
X140451069Y-110376070D01*
X140371544Y-110483822D01*
X140327315Y-110610219D01*
X140327314Y-110610224D01*
X140327313Y-110610226D01*
X140327314Y-110610226D01*
X140324500Y-110640236D01*
X140324500Y-111234764D01*
X138501600Y-111234764D01*
X138501600Y-110103600D01*
X144295418Y-110103600D01*
X144316055Y-110260360D01*
X144316055Y-110260361D01*
X144376564Y-110406441D01*
X144472815Y-110531879D01*
X144472820Y-110531884D01*
X144522094Y-110569693D01*
X144598259Y-110628136D01*
X144744338Y-110688644D01*
X144901100Y-110709282D01*
X145057862Y-110688644D01*
X145203941Y-110628136D01*
X145329382Y-110531882D01*
X145341273Y-110516384D01*
X145344456Y-110512756D01*
X145753612Y-110103600D01*
X145344460Y-109694448D01*
X145341269Y-109690810D01*
X145329382Y-109675318D01*
X145329379Y-109675315D01*
X145203941Y-109579064D01*
X145057861Y-109518555D01*
X144901100Y-109497918D01*
X144744339Y-109518555D01*
X144744338Y-109518555D01*
X144598258Y-109579064D01*
X144472820Y-109675315D01*
X144472815Y-109675320D01*
X144376564Y-109800758D01*
X144316055Y-109946838D01*
X144316055Y-109946839D01*
X144295418Y-110103600D01*
X138501600Y-110103600D01*
X138501600Y-109237500D01*
X140175001Y-109237500D01*
X140175001Y-109345161D01*
X140190282Y-109461247D01*
X140190283Y-109461251D01*
X140250110Y-109605686D01*
X140345283Y-109729716D01*
X140469312Y-109824888D01*
X140613750Y-109884717D01*
X140729838Y-109899999D01*
X141050000Y-109899999D01*
X141050000Y-109237500D01*
X140175001Y-109237500D01*
X138501600Y-109237500D01*
X138501600Y-107775393D01*
X138696699Y-107775393D01*
X138707064Y-107887257D01*
X138707064Y-107887259D01*
X138757140Y-107987825D01*
X138757142Y-107987828D01*
X138840167Y-108063516D01*
X138944927Y-108104100D01*
X140570503Y-108104100D01*
X140618069Y-108121413D01*
X140643379Y-108165250D01*
X140634589Y-108215100D01*
X140598821Y-108246467D01*
X140469313Y-108300110D01*
X140345283Y-108395283D01*
X140250111Y-108519312D01*
X140190282Y-108663750D01*
X140175000Y-108779838D01*
X140175000Y-108887500D01*
X141326000Y-108887500D01*
X141373566Y-108904813D01*
X141398876Y-108948650D01*
X141400000Y-108961500D01*
X141400000Y-109899999D01*
X141720161Y-109899999D01*
X141836247Y-109884717D01*
X141836251Y-109884716D01*
X141980686Y-109824889D01*
X142104716Y-109729716D01*
X142199888Y-109605687D01*
X142254334Y-109474245D01*
X142288532Y-109436925D01*
X142338717Y-109430318D01*
X142381409Y-109457516D01*
X142392548Y-109478123D01*
X142422206Y-109562881D01*
X142422207Y-109562883D01*
X142502846Y-109672146D01*
X142502853Y-109672153D01*
X142612116Y-109752792D01*
X142612118Y-109752793D01*
X142740295Y-109797644D01*
X142740301Y-109797646D01*
X142770734Y-109800500D01*
X142770741Y-109800500D01*
X143779258Y-109800500D01*
X143779266Y-109800500D01*
X143809699Y-109797646D01*
X143937882Y-109752793D01*
X144042856Y-109675319D01*
X144047146Y-109672153D01*
X144047146Y-109672152D01*
X144047150Y-109672150D01*
X144127793Y-109562882D01*
X144162949Y-109462412D01*
X145607399Y-109462412D01*
X146001099Y-109856112D01*
X146394799Y-109462412D01*
X146334318Y-109453600D01*
X145667889Y-109453600D01*
X145667875Y-109453602D01*
X145607399Y-109462412D01*
X144162949Y-109462412D01*
X144172646Y-109434699D01*
X144175500Y-109404266D01*
X144175500Y-108770734D01*
X144172646Y-108740301D01*
X144155478Y-108691237D01*
X144156108Y-108640623D01*
X144173000Y-108614470D01*
X144215298Y-108572173D01*
X144261174Y-108550782D01*
X144267623Y-108550500D01*
X146888000Y-108550500D01*
X146935566Y-108567813D01*
X146960876Y-108611650D01*
X146962000Y-108624500D01*
X146962000Y-109374674D01*
X146973940Y-109434699D01*
X146976534Y-109447740D01*
X146988128Y-109465091D01*
X147000600Y-109506204D01*
X147000600Y-109529100D01*
X146983287Y-109576666D01*
X146939450Y-109601976D01*
X146926600Y-109603100D01*
X146781352Y-109603100D01*
X146752110Y-109608916D01*
X146722867Y-109614733D01*
X146656549Y-109659047D01*
X146656547Y-109659049D01*
X146612233Y-109725369D01*
X146609442Y-109732106D01*
X146607734Y-109731398D01*
X146592738Y-109759447D01*
X146001100Y-110351087D01*
X145607399Y-110744787D01*
X145667881Y-110753599D01*
X146285349Y-110753599D01*
X146332915Y-110770912D01*
X146358225Y-110814749D01*
X146353716Y-110855917D01*
X146316056Y-110946835D01*
X146316055Y-110946839D01*
X146295418Y-111103600D01*
X146316055Y-111260360D01*
X146316055Y-111260361D01*
X146376564Y-111406441D01*
X146472815Y-111531879D01*
X146472820Y-111531884D01*
X146533513Y-111578455D01*
X146598259Y-111628136D01*
X146744338Y-111688644D01*
X146901100Y-111709282D01*
X147057862Y-111688644D01*
X147203941Y-111628136D01*
X147296100Y-111557419D01*
X147344376Y-111542198D01*
X147391142Y-111561569D01*
X147413887Y-111602527D01*
X147416038Y-111614031D01*
X147416038Y-111614032D01*
X147475013Y-111709281D01*
X147475181Y-111709552D01*
X147564836Y-111777256D01*
X147564838Y-111777256D01*
X147564839Y-111777257D01*
X147672888Y-111808000D01*
X147672890Y-111808000D01*
X147672893Y-111808001D01*
X147672894Y-111808000D01*
X147672896Y-111808001D01*
X147728826Y-111802817D01*
X147784760Y-111797635D01*
X147868529Y-111755922D01*
X147918822Y-111750218D01*
X147946105Y-111763111D01*
X147958261Y-111772291D01*
X147964837Y-111777257D01*
X148072888Y-111808000D01*
X148072890Y-111808000D01*
X148072893Y-111808001D01*
X148072894Y-111808000D01*
X148072896Y-111808001D01*
X148128826Y-111802817D01*
X148184760Y-111797635D01*
X148268529Y-111755922D01*
X148318822Y-111750218D01*
X148346105Y-111763111D01*
X148358261Y-111772291D01*
X148364837Y-111777257D01*
X148472888Y-111808000D01*
X148472890Y-111808000D01*
X148472893Y-111808001D01*
X148472894Y-111808000D01*
X148472896Y-111808001D01*
X148528826Y-111802817D01*
X148584760Y-111797635D01*
X148668529Y-111755922D01*
X148718822Y-111750218D01*
X148746105Y-111763111D01*
X148758261Y-111772291D01*
X148764837Y-111777257D01*
X148872888Y-111808000D01*
X148872890Y-111808000D01*
X148872893Y-111808001D01*
X148872894Y-111808000D01*
X148872896Y-111808001D01*
X148928826Y-111802817D01*
X148984760Y-111797635D01*
X149068529Y-111755922D01*
X149118822Y-111750218D01*
X149146105Y-111763111D01*
X149158261Y-111772291D01*
X149164837Y-111777257D01*
X149272888Y-111808000D01*
X149272890Y-111808000D01*
X149272893Y-111808001D01*
X149272894Y-111808000D01*
X149272896Y-111808001D01*
X149328826Y-111802817D01*
X149384760Y-111797635D01*
X149468529Y-111755922D01*
X149518822Y-111750218D01*
X149546105Y-111763111D01*
X149558261Y-111772291D01*
X149564837Y-111777257D01*
X149672888Y-111808000D01*
X149672890Y-111808000D01*
X149672893Y-111808001D01*
X149672894Y-111808000D01*
X149672896Y-111808001D01*
X149728826Y-111802817D01*
X149784760Y-111797635D01*
X149868529Y-111755922D01*
X149918822Y-111750218D01*
X149946105Y-111763111D01*
X149958261Y-111772291D01*
X149964837Y-111777257D01*
X150072888Y-111808000D01*
X150072890Y-111808000D01*
X150072893Y-111808001D01*
X150072894Y-111808000D01*
X150072896Y-111808001D01*
X150128826Y-111802817D01*
X150184760Y-111797635D01*
X150268529Y-111755922D01*
X150318822Y-111750218D01*
X150346105Y-111763111D01*
X150358261Y-111772291D01*
X150364837Y-111777257D01*
X150472888Y-111808000D01*
X150472890Y-111808000D01*
X150472893Y-111808001D01*
X150472894Y-111808000D01*
X150472896Y-111808001D01*
X150528826Y-111802817D01*
X150584760Y-111797635D01*
X150668529Y-111755922D01*
X150718822Y-111750218D01*
X150746105Y-111763111D01*
X150758261Y-111772291D01*
X150764837Y-111777257D01*
X150872888Y-111808000D01*
X150872890Y-111808000D01*
X150872893Y-111808001D01*
X150872894Y-111808000D01*
X150872896Y-111808001D01*
X150928826Y-111802817D01*
X150984760Y-111797635D01*
X151068529Y-111755922D01*
X151118822Y-111750218D01*
X151146105Y-111763111D01*
X151158261Y-111772291D01*
X151164837Y-111777257D01*
X151272888Y-111808000D01*
X151272890Y-111808000D01*
X151272893Y-111808001D01*
X151272894Y-111808000D01*
X151272896Y-111808001D01*
X151328826Y-111802817D01*
X151384760Y-111797635D01*
X151468529Y-111755922D01*
X151518822Y-111750218D01*
X151546105Y-111763111D01*
X151558261Y-111772291D01*
X151564837Y-111777257D01*
X151672888Y-111808000D01*
X151672890Y-111808000D01*
X151672893Y-111808001D01*
X151672894Y-111808000D01*
X151672896Y-111808001D01*
X151728826Y-111802817D01*
X151784760Y-111797635D01*
X151885328Y-111747558D01*
X151961016Y-111664533D01*
X152001600Y-111559773D01*
X152001600Y-108975756D01*
X151986161Y-108893167D01*
X151974083Y-108873661D01*
X151963000Y-108834706D01*
X151963000Y-108624500D01*
X151980313Y-108576934D01*
X152024150Y-108551624D01*
X152037000Y-108550500D01*
X152426600Y-108550500D01*
X152474166Y-108567813D01*
X152499476Y-108611650D01*
X152500600Y-108624500D01*
X152500600Y-111531447D01*
X152506231Y-111561569D01*
X152516039Y-111614033D01*
X152575181Y-111709552D01*
X152664836Y-111777256D01*
X152664838Y-111777256D01*
X152664839Y-111777257D01*
X152772888Y-111808000D01*
X152772890Y-111808000D01*
X152772893Y-111808001D01*
X152772894Y-111808000D01*
X152772896Y-111808001D01*
X152828826Y-111802817D01*
X152884760Y-111797635D01*
X152968529Y-111755922D01*
X153018822Y-111750218D01*
X153046105Y-111763111D01*
X153058261Y-111772291D01*
X153064837Y-111777257D01*
X153172888Y-111808000D01*
X153172890Y-111808000D01*
X153172893Y-111808001D01*
X153172894Y-111808000D01*
X153172896Y-111808001D01*
X153228826Y-111802817D01*
X153284760Y-111797635D01*
X153368529Y-111755922D01*
X153418822Y-111750218D01*
X153446105Y-111763111D01*
X153458261Y-111772291D01*
X153464837Y-111777257D01*
X153572888Y-111808000D01*
X153572890Y-111808000D01*
X153572893Y-111808001D01*
X153572894Y-111808000D01*
X153572896Y-111808001D01*
X153628826Y-111802817D01*
X153684760Y-111797635D01*
X153768529Y-111755922D01*
X153818822Y-111750218D01*
X153846105Y-111763111D01*
X153858261Y-111772291D01*
X153864837Y-111777257D01*
X153972888Y-111808000D01*
X153972890Y-111808000D01*
X153972893Y-111808001D01*
X153972894Y-111808000D01*
X153972896Y-111808001D01*
X154028826Y-111802817D01*
X154084760Y-111797635D01*
X154168529Y-111755922D01*
X154218822Y-111750218D01*
X154246105Y-111763111D01*
X154258261Y-111772291D01*
X154264837Y-111777257D01*
X154372888Y-111808000D01*
X154372890Y-111808000D01*
X154372893Y-111808001D01*
X154372894Y-111808000D01*
X154372896Y-111808001D01*
X154428826Y-111802817D01*
X154484760Y-111797635D01*
X154585328Y-111747558D01*
X154661016Y-111664533D01*
X154701600Y-111559773D01*
X154701600Y-107564689D01*
X154703554Y-107552715D01*
X154702926Y-107552628D01*
X154703873Y-107545837D01*
X154703873Y-107545835D01*
X154701638Y-107497497D01*
X154701600Y-107495811D01*
X154701600Y-107475757D01*
X154700788Y-107471417D01*
X154700196Y-107466327D01*
X154698685Y-107433608D01*
X154693542Y-107421960D01*
X154688498Y-107405669D01*
X154686161Y-107393168D01*
X154686161Y-107393167D01*
X154668926Y-107365331D01*
X154666537Y-107360799D01*
X154653306Y-107330834D01*
X154644306Y-107321834D01*
X154633715Y-107308462D01*
X154627021Y-107297651D01*
X154627018Y-107297647D01*
X154617696Y-107290608D01*
X154600887Y-107277914D01*
X154597021Y-107274550D01*
X154563714Y-107241243D01*
X154563712Y-107241239D01*
X154502898Y-107180426D01*
X154481505Y-107134550D01*
X154494605Y-107085656D01*
X154536070Y-107056622D01*
X154555223Y-107054100D01*
X156070846Y-107054100D01*
X156070848Y-107054100D01*
X156129331Y-107042467D01*
X156195652Y-106998152D01*
X156239571Y-106932422D01*
X156280392Y-106902492D01*
X156330903Y-106905803D01*
X156362627Y-106932422D01*
X156387834Y-106970145D01*
X156406548Y-106998152D01*
X156450660Y-107027627D01*
X156472867Y-107042466D01*
X156472868Y-107042466D01*
X156472869Y-107042467D01*
X156531352Y-107054100D01*
X156531354Y-107054100D01*
X157836893Y-107054100D01*
X157836899Y-107054100D01*
X157943557Y-107038765D01*
X158074473Y-106978977D01*
X158183243Y-106884728D01*
X158261053Y-106763653D01*
X158301599Y-106625563D01*
X158301600Y-106625563D01*
X158301600Y-106481636D01*
X158301599Y-106481635D01*
X158274055Y-106387828D01*
X158261053Y-106343547D01*
X158183243Y-106222472D01*
X158183240Y-106222469D01*
X158183239Y-106222468D01*
X158074473Y-106128223D01*
X158074472Y-106128223D01*
X157943557Y-106068435D01*
X157943555Y-106068434D01*
X157943554Y-106068434D01*
X157836903Y-106053100D01*
X157836899Y-106053100D01*
X157170848Y-106053100D01*
X156531352Y-106053100D01*
X156502110Y-106058916D01*
X156472867Y-106064733D01*
X156406549Y-106109047D01*
X156406545Y-106109051D01*
X156362626Y-106174777D01*
X156321804Y-106204707D01*
X156271293Y-106201395D01*
X156239571Y-106174776D01*
X156228093Y-106157598D01*
X156195652Y-106109048D01*
X156173443Y-106094208D01*
X156129332Y-106064733D01*
X156129333Y-106064733D01*
X156100089Y-106058916D01*
X156070848Y-106053100D01*
X156070846Y-106053100D01*
X155362815Y-106053100D01*
X155315249Y-106035787D01*
X155289939Y-105991950D01*
X155296334Y-105946599D01*
X155341187Y-105854849D01*
X155351099Y-105786823D01*
X155351099Y-105120388D01*
X155351098Y-105120374D01*
X155342287Y-105059898D01*
X154753425Y-105648760D01*
X154707548Y-105670152D01*
X154658654Y-105657051D01*
X154648773Y-105648760D01*
X154505938Y-105505925D01*
X154484546Y-105460049D01*
X154497647Y-105411154D01*
X154505938Y-105401273D01*
X155094799Y-104812412D01*
X155034323Y-104803600D01*
X154701833Y-104803600D01*
X154654267Y-104786287D01*
X154628957Y-104742450D01*
X154637747Y-104692600D01*
X154647147Y-104679746D01*
X154661016Y-104664533D01*
X154665615Y-104652658D01*
X154673568Y-104637573D01*
X154680756Y-104627081D01*
X154688252Y-104595209D01*
X154689767Y-104590313D01*
X154701600Y-104559773D01*
X154701600Y-104547046D01*
X154703566Y-104530102D01*
X154706479Y-104517719D01*
X154701954Y-104485283D01*
X154701600Y-104480173D01*
X154701600Y-104344787D01*
X155457399Y-104344787D01*
X155517881Y-104353599D01*
X156184311Y-104353599D01*
X156184322Y-104353598D01*
X156244799Y-104344786D01*
X155851100Y-103951087D01*
X155457399Y-104344787D01*
X154701600Y-104344787D01*
X154701600Y-104278100D01*
X154718913Y-104230534D01*
X154762750Y-104205224D01*
X154775600Y-104204100D01*
X155070846Y-104204100D01*
X155070848Y-104204100D01*
X155129331Y-104192467D01*
X155195652Y-104148152D01*
X155239967Y-104081831D01*
X155239967Y-104081829D01*
X155242757Y-104075096D01*
X155244470Y-104075805D01*
X155259461Y-104047750D01*
X155603612Y-103703599D01*
X156098587Y-103703599D01*
X156492286Y-104097298D01*
X156501099Y-104036819D01*
X156501099Y-103370388D01*
X156501098Y-103370374D01*
X156492287Y-103309898D01*
X156098587Y-103703599D01*
X155603612Y-103703599D01*
X155259461Y-103359448D01*
X155244470Y-103331395D01*
X155242758Y-103332105D01*
X155239968Y-103325371D01*
X155239967Y-103325369D01*
X155195652Y-103259048D01*
X155195648Y-103259045D01*
X155192529Y-103255926D01*
X155171137Y-103210050D01*
X155172865Y-103203600D01*
X155598587Y-103203600D01*
X155851099Y-103456112D01*
X156103613Y-103203600D01*
X155851100Y-102951087D01*
X155598587Y-103203600D01*
X155172865Y-103203600D01*
X155184238Y-103161155D01*
X155192529Y-103151274D01*
X155195645Y-103148156D01*
X155195652Y-103148152D01*
X155239967Y-103081831D01*
X155239967Y-103081829D01*
X155242757Y-103075096D01*
X155244470Y-103075805D01*
X155259461Y-103047750D01*
X155603612Y-102703599D01*
X155366822Y-102466809D01*
X155345430Y-102420933D01*
X155358531Y-102372038D01*
X155369520Y-102361164D01*
X155369014Y-102360658D01*
X155382860Y-102346810D01*
X155396238Y-102336214D01*
X155407052Y-102329519D01*
X155419418Y-102313143D01*
X155426787Y-102303383D01*
X155430151Y-102299519D01*
X155469572Y-102260098D01*
X155510005Y-102219665D01*
X155555878Y-102198275D01*
X155604773Y-102211376D01*
X155614654Y-102219667D01*
X155851100Y-102456113D01*
X156492286Y-103097298D01*
X156501099Y-103036819D01*
X156501099Y-102370382D01*
X156491187Y-102302351D01*
X156470531Y-102260098D01*
X156465194Y-102209761D01*
X156493461Y-102167770D01*
X156531678Y-102153790D01*
X156534312Y-102153599D01*
X156551156Y-102151144D01*
X156026100Y-101626087D01*
X155714320Y-101937866D01*
X155668443Y-101959258D01*
X155619549Y-101946157D01*
X155594340Y-101912412D01*
X155594294Y-101912439D01*
X155594099Y-101912089D01*
X155591828Y-101909049D01*
X155590957Y-101906452D01*
X155590957Y-101906449D01*
X155590955Y-101906445D01*
X155585952Y-101897462D01*
X155576600Y-101861454D01*
X155576600Y-101611265D01*
X155593913Y-101563699D01*
X155598274Y-101558939D01*
X155973774Y-101183439D01*
X156019650Y-101162047D01*
X156068545Y-101175148D01*
X156078426Y-101183439D01*
X156877984Y-101982997D01*
X156899849Y-101993687D01*
X156967881Y-102003599D01*
X157634311Y-102003599D01*
X157634322Y-102003598D01*
X157694799Y-101994786D01*
X157105939Y-101405926D01*
X157084547Y-101360050D01*
X157086276Y-101353598D01*
X157548587Y-101353598D01*
X157942286Y-101747298D01*
X157951099Y-101686819D01*
X157951099Y-101020388D01*
X157951098Y-101020374D01*
X157942287Y-100959898D01*
X157548587Y-101353598D01*
X157086276Y-101353598D01*
X157097648Y-101311155D01*
X157105939Y-101301274D01*
X157301100Y-101106113D01*
X157645250Y-100761961D01*
X157673305Y-100746970D01*
X157672596Y-100745257D01*
X157679329Y-100742467D01*
X157679331Y-100742467D01*
X157745652Y-100698152D01*
X157789967Y-100631831D01*
X157801600Y-100573348D01*
X157801600Y-99933852D01*
X157789967Y-99875369D01*
X157745652Y-99809048D01*
X157702772Y-99780396D01*
X157679332Y-99764733D01*
X157679333Y-99764733D01*
X157650089Y-99758916D01*
X157620848Y-99753100D01*
X156981352Y-99753100D01*
X156952110Y-99758916D01*
X156922867Y-99764733D01*
X156856549Y-99809047D01*
X156856548Y-99809048D01*
X156837128Y-99838112D01*
X156796306Y-99868042D01*
X156745795Y-99864730D01*
X156709231Y-99829726D01*
X156701600Y-99796998D01*
X156701600Y-99783853D01*
X156701600Y-99783852D01*
X156689967Y-99725369D01*
X156686629Y-99720374D01*
X156654285Y-99671968D01*
X156645652Y-99659048D01*
X156607944Y-99633852D01*
X156579332Y-99614733D01*
X156579333Y-99614733D01*
X156550089Y-99608916D01*
X156520848Y-99603100D01*
X155531352Y-99603100D01*
X155507958Y-99607753D01*
X155472866Y-99614733D01*
X155406547Y-99659048D01*
X155388793Y-99663392D01*
X154628425Y-100423760D01*
X154582548Y-100445152D01*
X154533654Y-100432051D01*
X154523773Y-100423760D01*
X153724213Y-99624200D01*
X153702350Y-99613512D01*
X153634318Y-99603600D01*
X152967889Y-99603600D01*
X152967875Y-99603602D01*
X152907399Y-99612412D01*
X153496260Y-100201273D01*
X153517652Y-100247149D01*
X153504551Y-100296044D01*
X153496260Y-100305925D01*
X152956947Y-100845238D01*
X152928898Y-100860234D01*
X152929606Y-100861942D01*
X152922869Y-100864733D01*
X152856547Y-100909048D01*
X152853423Y-100912173D01*
X152807545Y-100933563D01*
X152758652Y-100920459D01*
X152748777Y-100912173D01*
X152745654Y-100909051D01*
X152745652Y-100909048D01*
X152719086Y-100891297D01*
X152679331Y-100864732D01*
X152672599Y-100861944D01*
X152673306Y-100860236D01*
X152645251Y-100845238D01*
X152105939Y-100305926D01*
X152084547Y-100260050D01*
X152086275Y-100253600D01*
X152548587Y-100253600D01*
X152801100Y-100506113D01*
X153053613Y-100253600D01*
X153053613Y-100253599D01*
X152801100Y-100001087D01*
X152548587Y-100253599D01*
X152548587Y-100253600D01*
X152086275Y-100253600D01*
X152097648Y-100211155D01*
X152105939Y-100201274D01*
X152301100Y-100006113D01*
X152694799Y-99612412D01*
X152634323Y-99603600D01*
X152075600Y-99603600D01*
X152028034Y-99586287D01*
X152002724Y-99542450D01*
X152001600Y-99529600D01*
X152001600Y-99456053D01*
X154051042Y-99456053D01*
X154576100Y-99981111D01*
X155101157Y-99456053D01*
X155101157Y-99456052D01*
X155084328Y-99453601D01*
X155084311Y-99453600D01*
X154067881Y-99453600D01*
X154051042Y-99456053D01*
X152001600Y-99456053D01*
X152001600Y-98475756D01*
X152001599Y-98475752D01*
X151994649Y-98438573D01*
X151986161Y-98393167D01*
X151927019Y-98297648D01*
X151927018Y-98297647D01*
X151837367Y-98229946D01*
X151837365Y-98229945D01*
X151837364Y-98229944D01*
X151837363Y-98229943D01*
X151837360Y-98229942D01*
X151729311Y-98199199D01*
X151729303Y-98199198D01*
X151617442Y-98209564D01*
X151617440Y-98209564D01*
X151533673Y-98251276D01*
X151483376Y-98256981D01*
X151456093Y-98244087D01*
X151437367Y-98229946D01*
X151437365Y-98229945D01*
X151437364Y-98229944D01*
X151437363Y-98229943D01*
X151437360Y-98229942D01*
X151329311Y-98199199D01*
X151329303Y-98199198D01*
X151217442Y-98209564D01*
X151217440Y-98209564D01*
X151133673Y-98251276D01*
X151083376Y-98256981D01*
X151056093Y-98244087D01*
X151037367Y-98229946D01*
X151037365Y-98229945D01*
X151037364Y-98229944D01*
X151037363Y-98229943D01*
X151037360Y-98229942D01*
X150929311Y-98199199D01*
X150929303Y-98199198D01*
X150817442Y-98209564D01*
X150817440Y-98209564D01*
X150733673Y-98251276D01*
X150683376Y-98256981D01*
X150656093Y-98244087D01*
X150637367Y-98229946D01*
X150637365Y-98229945D01*
X150637364Y-98229944D01*
X150637363Y-98229943D01*
X150637360Y-98229942D01*
X150529311Y-98199199D01*
X150529303Y-98199198D01*
X150417442Y-98209564D01*
X150417440Y-98209564D01*
X150333673Y-98251276D01*
X150283376Y-98256981D01*
X150256093Y-98244087D01*
X150237367Y-98229946D01*
X150237365Y-98229945D01*
X150237364Y-98229944D01*
X150237363Y-98229943D01*
X150237360Y-98229942D01*
X150129311Y-98199199D01*
X150129303Y-98199198D01*
X150017442Y-98209564D01*
X150017440Y-98209564D01*
X149933673Y-98251276D01*
X149883376Y-98256981D01*
X149856093Y-98244087D01*
X149837367Y-98229946D01*
X149837365Y-98229945D01*
X149837364Y-98229944D01*
X149837363Y-98229943D01*
X149837360Y-98229942D01*
X149729311Y-98199199D01*
X149729303Y-98199198D01*
X149617442Y-98209564D01*
X149617440Y-98209564D01*
X149533673Y-98251276D01*
X149483376Y-98256981D01*
X149456093Y-98244087D01*
X149437367Y-98229946D01*
X149437365Y-98229945D01*
X149437364Y-98229944D01*
X149437363Y-98229943D01*
X149437360Y-98229942D01*
X149329311Y-98199199D01*
X149329303Y-98199198D01*
X149217442Y-98209564D01*
X149217440Y-98209564D01*
X149116874Y-98259640D01*
X149116872Y-98259641D01*
X149116872Y-98259642D01*
X149041184Y-98342667D01*
X149041183Y-98342668D01*
X149041183Y-98342669D01*
X149000600Y-98447427D01*
X149000600Y-102425500D01*
X148983287Y-102473066D01*
X148939450Y-102498376D01*
X148926600Y-102499500D01*
X148858338Y-102499500D01*
X148810772Y-102482187D01*
X148806012Y-102477826D01*
X148750546Y-102422360D01*
X148637649Y-102364835D01*
X148562500Y-102352932D01*
X148562500Y-102718425D01*
X148562322Y-102722051D01*
X148562000Y-102725321D01*
X148562000Y-103138500D01*
X148544687Y-103186066D01*
X148500850Y-103211376D01*
X148488000Y-103212500D01*
X148450460Y-103212500D01*
X148402894Y-103195187D01*
X148377584Y-103151350D01*
X148381457Y-103111768D01*
X148387063Y-103097298D01*
X148401600Y-103059773D01*
X148401600Y-102014468D01*
X148401677Y-102012085D01*
X148402408Y-102000758D01*
X148404594Y-101966899D01*
X148393824Y-101932711D01*
X148392746Y-101928401D01*
X148386161Y-101893167D01*
X148381290Y-101885300D01*
X148373622Y-101868570D01*
X148370842Y-101859743D01*
X148370841Y-101859742D01*
X148370842Y-101859742D01*
X148367815Y-101855959D01*
X148351600Y-101809732D01*
X148351600Y-100958853D01*
X148346627Y-100933852D01*
X148339967Y-100900369D01*
X148299111Y-100839225D01*
X148287080Y-100790059D01*
X148291057Y-100781992D01*
X148296913Y-100746900D01*
X147453612Y-99903599D01*
X147948586Y-99903599D01*
X148501098Y-100456111D01*
X148501099Y-100456111D01*
X148501099Y-99351087D01*
X148501098Y-99351087D01*
X147948586Y-99903599D01*
X147453612Y-99903599D01*
X147268205Y-99718192D01*
X147252245Y-99689536D01*
X147251456Y-99689885D01*
X147248685Y-99683609D01*
X147243541Y-99671961D01*
X147238498Y-99655671D01*
X147236161Y-99643168D01*
X147236160Y-99643166D01*
X147226528Y-99627610D01*
X147218924Y-99615328D01*
X147216534Y-99610796D01*
X147203306Y-99580835D01*
X147194307Y-99571836D01*
X147183715Y-99558463D01*
X147177020Y-99547649D01*
X147177019Y-99547648D01*
X147150884Y-99527912D01*
X147147020Y-99524549D01*
X146682768Y-99060297D01*
X147105286Y-99060297D01*
X147701099Y-99656111D01*
X148296912Y-99060297D01*
X148252351Y-99038512D01*
X148184318Y-99028600D01*
X147217881Y-99028600D01*
X147149856Y-99038510D01*
X147149849Y-99038512D01*
X147105286Y-99060297D01*
X146682768Y-99060297D01*
X146256782Y-98634311D01*
X146249697Y-98624462D01*
X146249191Y-98624845D01*
X146245058Y-98619372D01*
X146209313Y-98586786D01*
X146208076Y-98585605D01*
X146193896Y-98571425D01*
X146190249Y-98568926D01*
X146186232Y-98565744D01*
X146185438Y-98565020D01*
X146162033Y-98543684D01*
X146150161Y-98539084D01*
X146135081Y-98531136D01*
X146124580Y-98523943D01*
X146092712Y-98516448D01*
X146087813Y-98514931D01*
X146057274Y-98503100D01*
X146057273Y-98503100D01*
X146044547Y-98503100D01*
X146027604Y-98501134D01*
X146015218Y-98498220D01*
X146011746Y-98498060D01*
X145965032Y-98478564D01*
X145942594Y-98438576D01*
X145939967Y-98425369D01*
X145939965Y-98425366D01*
X145939965Y-98425365D01*
X145917733Y-98392094D01*
X145895652Y-98359048D01*
X145873443Y-98344208D01*
X145829332Y-98314733D01*
X145829333Y-98314733D01*
X145800089Y-98308916D01*
X145770848Y-98303100D01*
X145131352Y-98303100D01*
X145102110Y-98308916D01*
X145072867Y-98314733D01*
X145006549Y-98359047D01*
X145006545Y-98359051D01*
X144962626Y-98424777D01*
X144921804Y-98454707D01*
X144871293Y-98451395D01*
X144839571Y-98424776D01*
X144818449Y-98393166D01*
X144795652Y-98359048D01*
X144773443Y-98344208D01*
X144729332Y-98314733D01*
X144729333Y-98314733D01*
X144700089Y-98308916D01*
X144670848Y-98303100D01*
X144031352Y-98303100D01*
X144002110Y-98308916D01*
X143972867Y-98314733D01*
X143906549Y-98359047D01*
X143906547Y-98359049D01*
X143862233Y-98425367D01*
X143857845Y-98447427D01*
X143852211Y-98475756D01*
X143850600Y-98483853D01*
X143850600Y-99123346D01*
X143862233Y-99181832D01*
X143886564Y-99218245D01*
X143906548Y-99248152D01*
X143950660Y-99277627D01*
X143972867Y-99292466D01*
X143972869Y-99292467D01*
X143991036Y-99296080D01*
X144034310Y-99322338D01*
X144050600Y-99368658D01*
X144050600Y-99379100D01*
X144033287Y-99426666D01*
X143989450Y-99451976D01*
X143976600Y-99453100D01*
X143556352Y-99453100D01*
X143528269Y-99458686D01*
X143497867Y-99464733D01*
X143431549Y-99509047D01*
X143431547Y-99509049D01*
X143387233Y-99575367D01*
X143375600Y-99633853D01*
X143375600Y-100573346D01*
X143387233Y-100631832D01*
X143407353Y-100661942D01*
X143431548Y-100698152D01*
X143475660Y-100727627D01*
X143497867Y-100742466D01*
X143497868Y-100742466D01*
X143497869Y-100742467D01*
X143556352Y-100754100D01*
X143556354Y-100754100D01*
X144645846Y-100754100D01*
X144645848Y-100754100D01*
X144704331Y-100742467D01*
X144770652Y-100698152D01*
X144814967Y-100631831D01*
X144826600Y-100573348D01*
X144826600Y-99633852D01*
X144814967Y-99575369D01*
X144812606Y-99571836D01*
X144792971Y-99542450D01*
X144770652Y-99509048D01*
X144748443Y-99494208D01*
X144704332Y-99464733D01*
X144697600Y-99461945D01*
X144698949Y-99458686D01*
X144667868Y-99439807D01*
X144651600Y-99393514D01*
X144651600Y-99368658D01*
X144668913Y-99321092D01*
X144711163Y-99296080D01*
X144729331Y-99292467D01*
X144795652Y-99248152D01*
X144839571Y-99182422D01*
X144880392Y-99152492D01*
X144930903Y-99155803D01*
X144962627Y-99182422D01*
X144986564Y-99218245D01*
X145006548Y-99248152D01*
X145050660Y-99277627D01*
X145072867Y-99292466D01*
X145072868Y-99292466D01*
X145072869Y-99292467D01*
X145131352Y-99304100D01*
X145131354Y-99304100D01*
X145770846Y-99304100D01*
X145770848Y-99304100D01*
X145829331Y-99292467D01*
X145895652Y-99248152D01*
X145895656Y-99248145D01*
X145900805Y-99242998D01*
X145901605Y-99243798D01*
X145936450Y-99218245D01*
X145986961Y-99221551D01*
X146009490Y-99236961D01*
X146099303Y-99326774D01*
X146120695Y-99372650D01*
X146107594Y-99421545D01*
X146066130Y-99450579D01*
X146046977Y-99453100D01*
X145156352Y-99453100D01*
X145128269Y-99458686D01*
X145097867Y-99464733D01*
X145031549Y-99509047D01*
X145031547Y-99509049D01*
X144987233Y-99575367D01*
X144975600Y-99633853D01*
X144975600Y-100573346D01*
X144987233Y-100631832D01*
X145007353Y-100661942D01*
X145031548Y-100698152D01*
X145075660Y-100727627D01*
X145097867Y-100742466D01*
X145097869Y-100742467D01*
X145154805Y-100753792D01*
X145198080Y-100780051D01*
X145214351Y-100827984D01*
X145199078Y-100871417D01*
X145176564Y-100900758D01*
X145116055Y-101046838D01*
X145116055Y-101046839D01*
X145095418Y-101203600D01*
X145116055Y-101360360D01*
X145116055Y-101360361D01*
X145176564Y-101506441D01*
X145199077Y-101535781D01*
X145214299Y-101584057D01*
X145194927Y-101630823D01*
X145154806Y-101653407D01*
X145097867Y-101664733D01*
X145097866Y-101664733D01*
X145036728Y-101705586D01*
X144987559Y-101717618D01*
X144979496Y-101713641D01*
X144944400Y-101707785D01*
X144348587Y-102303599D01*
X144348587Y-102303600D01*
X144944400Y-102899413D01*
X144965108Y-102895957D01*
X144965566Y-102895517D01*
X144969299Y-102895258D01*
X144981972Y-102893144D01*
X144982176Y-102894367D01*
X145016065Y-102892023D01*
X145036728Y-102901613D01*
X145097867Y-102942466D01*
X145097868Y-102942466D01*
X145097869Y-102942467D01*
X145156352Y-102954100D01*
X145895977Y-102954100D01*
X145943543Y-102971413D01*
X145948303Y-102975774D01*
X146145418Y-103172889D01*
X146152504Y-103182737D01*
X146153010Y-103182356D01*
X146157143Y-103187829D01*
X146192885Y-103220412D01*
X146194122Y-103221593D01*
X146208303Y-103235774D01*
X146211956Y-103238276D01*
X146215958Y-103241447D01*
X146229090Y-103253418D01*
X146240165Y-103263515D01*
X146240166Y-103263515D01*
X146240167Y-103263516D01*
X146252034Y-103268113D01*
X146267121Y-103276065D01*
X146277619Y-103283256D01*
X146309487Y-103290751D01*
X146314389Y-103292269D01*
X146344926Y-103304100D01*
X146344927Y-103304100D01*
X146357653Y-103304100D01*
X146374596Y-103306066D01*
X146386981Y-103308979D01*
X146419415Y-103304454D01*
X146424526Y-103304100D01*
X146888000Y-103304100D01*
X146935566Y-103321413D01*
X146960876Y-103365250D01*
X146962000Y-103378100D01*
X146962000Y-103475500D01*
X146944687Y-103523066D01*
X146900850Y-103548376D01*
X146888000Y-103549500D01*
X146690879Y-103549500D01*
X146664147Y-103544503D01*
X146557273Y-103503100D01*
X146025600Y-103503100D01*
X145978034Y-103485787D01*
X145952724Y-103441950D01*
X145951600Y-103429100D01*
X145951600Y-103283853D01*
X145950051Y-103276065D01*
X145939967Y-103225369D01*
X145929061Y-103209048D01*
X145924583Y-103202345D01*
X145895652Y-103159048D01*
X145857944Y-103133852D01*
X145829332Y-103114733D01*
X145829333Y-103114733D01*
X145800089Y-103108916D01*
X145770848Y-103103100D01*
X145131352Y-103103100D01*
X145102110Y-103108916D01*
X145072867Y-103114733D01*
X145006549Y-103159047D01*
X145006547Y-103159049D01*
X144962233Y-103225369D01*
X144959442Y-103232106D01*
X144957734Y-103231398D01*
X144942738Y-103259447D01*
X144403425Y-103798760D01*
X144357549Y-103820152D01*
X144308654Y-103807051D01*
X144298773Y-103798760D01*
X144155938Y-103655925D01*
X144134546Y-103610049D01*
X144147647Y-103561154D01*
X144155938Y-103551273D01*
X144628608Y-103078599D01*
X144101100Y-102551087D01*
X143548587Y-103103598D01*
X143548587Y-103103599D01*
X143641208Y-103103599D01*
X143688774Y-103120912D01*
X143714084Y-103164749D01*
X143711910Y-103199443D01*
X143711013Y-103202345D01*
X143701100Y-103270376D01*
X143701100Y-103270387D01*
X143701101Y-103829100D01*
X143683788Y-103876666D01*
X143639951Y-103901976D01*
X143627101Y-103903100D01*
X143056224Y-103903100D01*
X143008658Y-103885787D01*
X143003898Y-103881426D01*
X142523274Y-103400802D01*
X142501882Y-103354926D01*
X142501600Y-103348476D01*
X142501600Y-102786818D01*
X143226100Y-102786818D01*
X143236010Y-102854843D01*
X143236012Y-102854850D01*
X143257797Y-102899413D01*
X143853612Y-102303599D01*
X143257798Y-101707784D01*
X143257797Y-101707785D01*
X143236012Y-101752351D01*
X143226100Y-101820376D01*
X143226100Y-102786818D01*
X142501600Y-102786818D01*
X142501600Y-102514690D01*
X142503554Y-102502716D01*
X142502926Y-102502629D01*
X142503873Y-102495838D01*
X142502531Y-102466809D01*
X142501638Y-102447498D01*
X142501600Y-102445812D01*
X142501600Y-102425757D01*
X142501552Y-102425500D01*
X142500787Y-102421411D01*
X142500196Y-102416327D01*
X142498685Y-102383609D01*
X142493541Y-102371961D01*
X142488498Y-102355671D01*
X142486161Y-102343168D01*
X142486160Y-102343166D01*
X142477710Y-102329519D01*
X142468924Y-102315328D01*
X142466534Y-102310796D01*
X142453306Y-102280835D01*
X142444307Y-102271836D01*
X142433715Y-102258463D01*
X142427020Y-102247649D01*
X142427019Y-102247648D01*
X142400884Y-102227912D01*
X142397020Y-102224549D01*
X141998597Y-101826126D01*
X141977205Y-101780250D01*
X141987820Y-101738834D01*
X141987177Y-101738568D01*
X141989045Y-101734055D01*
X141989398Y-101732682D01*
X141989967Y-101731831D01*
X142001600Y-101673348D01*
X142001600Y-101503600D01*
X143548588Y-101503600D01*
X144101100Y-102056112D01*
X144653612Y-101503600D01*
X143548588Y-101503600D01*
X142001600Y-101503600D01*
X142001600Y-100633852D01*
X141989967Y-100575369D01*
X141988615Y-100573346D01*
X141956816Y-100525756D01*
X141945652Y-100509048D01*
X141923443Y-100494208D01*
X141879332Y-100464733D01*
X141879333Y-100464733D01*
X141850089Y-100458916D01*
X141820848Y-100453100D01*
X139981352Y-100453100D01*
X139981351Y-100453100D01*
X139939534Y-100461417D01*
X139889504Y-100453716D01*
X139856130Y-100415658D01*
X139851099Y-100388839D01*
X139851099Y-99720388D01*
X139851098Y-99720374D01*
X139842287Y-99659898D01*
X139201100Y-100301087D01*
X138856947Y-100645238D01*
X138828898Y-100660234D01*
X138829606Y-100661942D01*
X138822869Y-100664733D01*
X138756549Y-100709047D01*
X138756547Y-100709049D01*
X138712233Y-100775367D01*
X138700600Y-100833853D01*
X138700600Y-101473346D01*
X138712233Y-101531832D01*
X138730346Y-101558939D01*
X138756548Y-101598152D01*
X138776173Y-101611265D01*
X138822867Y-101642466D01*
X138822868Y-101642466D01*
X138822869Y-101642467D01*
X138881352Y-101654100D01*
X138881354Y-101654100D01*
X139520846Y-101654100D01*
X139520848Y-101654100D01*
X139579331Y-101642467D01*
X139645652Y-101598152D01*
X139665072Y-101569087D01*
X139705893Y-101539157D01*
X139756404Y-101542468D01*
X139792969Y-101577472D01*
X139800600Y-101610201D01*
X139800600Y-101673346D01*
X139812233Y-101731832D01*
X139825944Y-101752351D01*
X139856548Y-101798152D01*
X139889808Y-101820376D01*
X139922867Y-101842466D01*
X139922868Y-101842466D01*
X139922869Y-101842467D01*
X139981352Y-101854100D01*
X141145977Y-101854100D01*
X141193543Y-101871413D01*
X141198303Y-101875774D01*
X141878926Y-102556397D01*
X141900318Y-102602273D01*
X141900600Y-102608723D01*
X141900600Y-102879308D01*
X141883287Y-102926874D01*
X141839450Y-102952184D01*
X141824483Y-102952757D01*
X141824483Y-102953100D01*
X139981351Y-102953100D01*
X139939534Y-102961417D01*
X139889504Y-102953716D01*
X139856130Y-102915658D01*
X139851099Y-102888839D01*
X139851099Y-102220388D01*
X139851098Y-102220374D01*
X139842287Y-102159898D01*
X139201100Y-102801087D01*
X138856947Y-103145238D01*
X138828898Y-103160234D01*
X138829606Y-103161942D01*
X138822869Y-103164733D01*
X138756549Y-103209047D01*
X138756547Y-103209049D01*
X138712233Y-103275367D01*
X138700600Y-103333853D01*
X138700600Y-103973346D01*
X138712233Y-104031832D01*
X138737128Y-104069088D01*
X138756548Y-104098152D01*
X138800660Y-104127627D01*
X138822867Y-104142466D01*
X138822868Y-104142466D01*
X138822869Y-104142467D01*
X138881352Y-104154100D01*
X138881354Y-104154100D01*
X139520846Y-104154100D01*
X139520848Y-104154100D01*
X139579331Y-104142467D01*
X139645652Y-104098152D01*
X139665072Y-104069087D01*
X139705893Y-104039157D01*
X139756404Y-104042468D01*
X139792969Y-104077472D01*
X139800600Y-104110200D01*
X139800600Y-104173348D01*
X139804403Y-104192466D01*
X139812233Y-104231832D01*
X139838769Y-104271545D01*
X139856548Y-104298152D01*
X139900660Y-104327627D01*
X139922867Y-104342466D01*
X139922868Y-104342466D01*
X139922869Y-104342467D01*
X139981352Y-104354100D01*
X141495977Y-104354100D01*
X141543543Y-104371413D01*
X141548303Y-104375774D01*
X141749303Y-104576774D01*
X141770695Y-104622650D01*
X141757594Y-104671545D01*
X141716130Y-104700579D01*
X141696977Y-104703100D01*
X138973252Y-104703100D01*
X138890666Y-104718539D01*
X138795147Y-104777681D01*
X138727446Y-104867332D01*
X138727442Y-104867339D01*
X138696699Y-104975388D01*
X138696699Y-104975393D01*
X138707064Y-105087257D01*
X138707065Y-105087262D01*
X138748775Y-105171027D01*
X138754479Y-105221323D01*
X138741588Y-105248604D01*
X138727445Y-105267332D01*
X138727442Y-105267339D01*
X138696699Y-105375388D01*
X138696699Y-105375393D01*
X138707064Y-105487257D01*
X138707065Y-105487262D01*
X138748775Y-105571027D01*
X138754479Y-105621323D01*
X138741588Y-105648604D01*
X138727445Y-105667332D01*
X138727442Y-105667339D01*
X138696699Y-105775388D01*
X138696699Y-105775393D01*
X138707064Y-105887257D01*
X138707065Y-105887262D01*
X138748775Y-105971027D01*
X138754479Y-106021323D01*
X138741588Y-106048604D01*
X138727445Y-106067332D01*
X138727442Y-106067339D01*
X138696699Y-106175388D01*
X138696699Y-106175393D01*
X138707064Y-106287257D01*
X138707065Y-106287262D01*
X138748775Y-106371027D01*
X138754479Y-106421323D01*
X138741588Y-106448604D01*
X138727445Y-106467332D01*
X138727442Y-106467339D01*
X138696699Y-106575388D01*
X138696699Y-106575393D01*
X138707064Y-106687257D01*
X138707065Y-106687262D01*
X138748775Y-106771027D01*
X138754479Y-106821323D01*
X138741588Y-106848604D01*
X138727445Y-106867332D01*
X138727442Y-106867339D01*
X138696699Y-106975388D01*
X138696699Y-106975393D01*
X138707064Y-107087257D01*
X138707065Y-107087262D01*
X138748775Y-107171027D01*
X138754479Y-107221323D01*
X138741588Y-107248604D01*
X138727445Y-107267332D01*
X138727442Y-107267339D01*
X138696699Y-107375388D01*
X138696699Y-107375393D01*
X138707064Y-107487257D01*
X138707065Y-107487262D01*
X138748775Y-107571027D01*
X138754479Y-107621323D01*
X138741588Y-107648604D01*
X138727445Y-107667332D01*
X138727442Y-107667339D01*
X138696699Y-107775388D01*
X138696699Y-107775393D01*
X138501600Y-107775393D01*
X138501600Y-103030472D01*
X138518913Y-102982906D01*
X138531673Y-102975538D01*
X138953613Y-102553599D01*
X138527623Y-102127610D01*
X138527884Y-102127348D01*
X138510472Y-102111859D01*
X138501600Y-102076726D01*
X138501600Y-101912412D01*
X138807399Y-101912412D01*
X139201099Y-102306112D01*
X139594799Y-101912412D01*
X139534318Y-101903600D01*
X138867889Y-101903600D01*
X138867875Y-101903602D01*
X138807399Y-101912412D01*
X138501600Y-101912412D01*
X138501600Y-100530472D01*
X138518913Y-100482906D01*
X138531673Y-100475538D01*
X138953612Y-100053599D01*
X138527623Y-99627610D01*
X138527884Y-99627348D01*
X138510472Y-99611859D01*
X138501600Y-99576726D01*
X138501600Y-99412412D01*
X138807399Y-99412412D01*
X139201099Y-99806112D01*
X139594799Y-99412412D01*
X139534318Y-99403600D01*
X138867889Y-99403600D01*
X138867875Y-99403602D01*
X138807399Y-99412412D01*
X138501600Y-99412412D01*
X138501600Y-98078100D01*
X138518913Y-98030534D01*
X138562750Y-98005224D01*
X138575600Y-98004100D01*
X158426600Y-98004100D01*
X158474166Y-98021413D01*
G37*
%TD.AperFunction*%
%TD*%
M02*
