%TF.GenerationSoftware,KiCad,Pcbnew,7.0.7*%
%TF.CreationDate,2023-11-20T17:39:21+01:00*%
%TF.ProjectId,nrf52dk,6e726635-3264-46b2-9e6b-696361645f70,rev?*%
%TF.SameCoordinates,Original*%
%TF.FileFunction,Paste,Top*%
%TF.FilePolarity,Positive*%
%FSLAX46Y46*%
G04 Gerber Fmt 4.6, Leading zero omitted, Abs format (unit mm)*
G04 Created by KiCad (PCBNEW 7.0.7) date 2023-11-20 17:39:21*
%MOMM*%
%LPD*%
G01*
G04 APERTURE LIST*
G04 Aperture macros list*
%AMRoundRect*
0 Rectangle with rounded corners*
0 $1 Rounding radius*
0 $2 $3 $4 $5 $6 $7 $8 $9 X,Y pos of 4 corners*
0 Add a 4 corners polygon primitive as box body*
4,1,4,$2,$3,$4,$5,$6,$7,$8,$9,$2,$3,0*
0 Add four circle primitives for the rounded corners*
1,1,$1+$1,$2,$3*
1,1,$1+$1,$4,$5*
1,1,$1+$1,$6,$7*
1,1,$1+$1,$8,$9*
0 Add four rect primitives between the rounded corners*
20,1,$1+$1,$2,$3,$4,$5,0*
20,1,$1+$1,$4,$5,$6,$7,0*
20,1,$1+$1,$6,$7,$8,$9,0*
20,1,$1+$1,$8,$9,$2,$3,0*%
G04 Aperture macros list end*
%ADD10RoundRect,0.050000X-0.050000X-0.362500X0.050000X-0.362500X0.050000X0.362500X-0.050000X0.362500X0*%
%ADD11RoundRect,0.050000X-0.362500X-0.050000X0.362500X-0.050000X0.362500X0.050000X-0.362500X0.050000X0*%
%ADD12RoundRect,0.250000X-0.350000X-0.350000X0.350000X-0.350000X0.350000X0.350000X-0.350000X0.350000X0*%
%ADD13RoundRect,0.250000X0.450000X-0.262500X0.450000X0.262500X-0.450000X0.262500X-0.450000X-0.262500X0*%
%ADD14RoundRect,0.243750X-0.456250X0.243750X-0.456250X-0.243750X0.456250X-0.243750X0.456250X0.243750X0*%
%ADD15R,0.600000X0.600000*%
%ADD16R,1.050000X0.900000*%
%ADD17R,1.800000X1.000000*%
%ADD18R,0.900000X1.050000*%
%ADD19R,0.950000X0.850000*%
G04 APERTURE END LIST*
D10*
%TO.C,U1*%
X147262500Y-103112500D03*
X147662500Y-103112500D03*
X148062500Y-103112500D03*
X148462500Y-103112500D03*
X148862500Y-103112500D03*
X149262500Y-103112500D03*
X149662500Y-103112500D03*
X150062500Y-103112500D03*
X150462500Y-103112500D03*
X150862500Y-103112500D03*
X151262500Y-103112500D03*
X151662500Y-103112500D03*
D11*
X152400000Y-103850000D03*
X152400000Y-104250000D03*
X152400000Y-104650000D03*
X152400000Y-105050000D03*
X152400000Y-105450000D03*
X152400000Y-105850000D03*
X152400000Y-106250000D03*
X152400000Y-106650000D03*
X152400000Y-107050000D03*
X152400000Y-107450000D03*
X152400000Y-107850000D03*
X152400000Y-108250000D03*
D10*
X151662500Y-108987500D03*
X151262500Y-108987500D03*
X150862500Y-108987500D03*
X150462500Y-108987500D03*
X150062500Y-108987500D03*
X149662500Y-108987500D03*
X149262500Y-108987500D03*
X148862500Y-108987500D03*
X148462500Y-108987500D03*
X148062500Y-108987500D03*
X147662500Y-108987500D03*
X147262500Y-108987500D03*
D11*
X146525000Y-108250000D03*
X146525000Y-107850000D03*
X146525000Y-107450000D03*
X146525000Y-107050000D03*
X146525000Y-106650000D03*
X146525000Y-106250000D03*
X146525000Y-105850000D03*
X146525000Y-105450000D03*
X146525000Y-105050000D03*
X146525000Y-104650000D03*
X146525000Y-104250000D03*
X146525000Y-103850000D03*
D12*
X150942500Y-107530000D03*
X149462500Y-104570000D03*
X149462500Y-106050000D03*
X150942500Y-106050000D03*
X147982500Y-107530000D03*
X147982500Y-106050000D03*
X150942500Y-104570000D03*
X149462500Y-107530000D03*
X147982500Y-104570000D03*
%TD*%
D13*
%TO.C,R1*%
X143275000Y-110912500D03*
X143275000Y-109087500D03*
%TD*%
D14*
%TO.C,D1*%
X141225000Y-109062500D03*
X141225000Y-110937500D03*
%TD*%
D15*
%TO.C,C12*%
X139201100Y-102553600D03*
X139201100Y-103653600D03*
%TD*%
D16*
%TO.C,L2*%
X145701100Y-100103600D03*
X144101100Y-100103600D03*
%TD*%
D17*
%TO.C,X2*%
X140901100Y-101153600D03*
X140901100Y-103653600D03*
%TD*%
D15*
%TO.C,C5*%
X147101100Y-110103600D03*
X146001100Y-110103600D03*
%TD*%
%TO.C,C1*%
X157301100Y-100253600D03*
X157301100Y-101353600D03*
%TD*%
D16*
%TO.C,C9*%
X145701100Y-102303600D03*
X144101100Y-102303600D03*
%TD*%
D15*
%TO.C,L3*%
X144351100Y-98803600D03*
X145451100Y-98803600D03*
%TD*%
%TO.C,C11*%
X139201100Y-100053600D03*
X139201100Y-101153600D03*
%TD*%
%TO.C,C4*%
X145451100Y-103603600D03*
X144351100Y-103603600D03*
%TD*%
D18*
%TO.C,C10*%
X147701100Y-101503600D03*
X147701100Y-99903600D03*
%TD*%
D15*
%TO.C,C7*%
X154751100Y-102703600D03*
X155851100Y-102703600D03*
%TD*%
%TO.C,C6*%
X154751100Y-103703600D03*
X155851100Y-103703600D03*
%TD*%
%TO.C,L1*%
X155751100Y-106553600D03*
X156851100Y-106553600D03*
%TD*%
%TO.C,C8*%
X152301100Y-101353600D03*
X152301100Y-100253600D03*
%TD*%
%TO.C,C3*%
X154701100Y-106553600D03*
X154701100Y-105453600D03*
%TD*%
D19*
%TO.C,X1*%
X156026100Y-100228600D03*
X154576100Y-100228600D03*
X154576100Y-101378600D03*
X156026100Y-101378600D03*
%TD*%
D15*
%TO.C,C2*%
X153301100Y-101353600D03*
X153301100Y-100253600D03*
%TD*%
M02*
